Model Name ,Material,Color,Collection,Warranty,Finish,Price,SKU,Mounting Type,Number Of Handles,Dimensions
Aleo Bath spout with diverter,Brass," French Gold, Polished Chrome",Aleo,10Years,Chrome,"4,920.00",K-20077IN-AF,Wall-Mount,One,
Hone Bath Spout without diveter ,Stainless Steel,"Polished Chrome,Brushed Nickel, French Gold",Hone,10Years,Stainless Steel,"3,000.00",K-22543IN-CP,Wall-Mount,One,
Purist Deck Mount Lavatory Faucet,Brass,French Gold,Purist,10Years,Chrome,"83,420.00",K-14428IN-4-AF,Bath/Deck Mount,Two,
Stance Deck mount single control bath faucet with diverter,Solid Brass, Polished Chrome,Stance,10Years,Chrome,"77,560.00",K-14774IN-4-CP,Bath/Deck Mount,One,"L 210mm, H 234mm, W 292mm"
PARALLEL SINGLE CONTROL TALL LAV WITHOUT DRAIN,Brass,"Polished Chrome,Brushed Nickel, French Gold,Rose Gold",Parallel,10Years,Chrome,"15,000.00",K-23475IN-4ND-CP,Wall-Mount,One,
Strayt Wall mount single control lavatory faucet trim,Brass,"Polished Chrome,French Gold",Strayt,10Years,Chrome,"16,380.00",K-20739IN-4ND-AF,Wall-Mount,One,
Singulier Bath spout with diverter,Solid Brass,"Polished Chrome,Brushed Nickel, French Gold,Rose Gold",Singulier,10Years,Chrome,"5,400.00",K-8160IN-BN,Wall-Mount,One,"L 185mm, H 47mm, W 57mm, "
Strayt Dual-handle wall-mount kitchen mixer,Solid Brass,Polished Chrome,Strayt,10Years,Chrome,"15,370.00",K-37338IN-4-CP,Wall-Mount,Two,"L 235.5mm,H 66mm, W 296mm"
Cuff Dual handle kitchen sink faucet with upward spout,Solid Brass,Polished Chrome,Cuff,10Years,Chrome,"7,370.00",K-37316IN-4-CP,Deck-Mount,Two,"L 228mm, H 265mm, W 139mm, "
SIMPLICE PULLDOWN KITCHEN FAUCET,Solid Brass,Polished Chrome,Simplice,10Years,Chrome,"35,770.00",K-596-CP,Deck-Mount,One,