ID,"Category Name","Parent Category","Category Description","Show Home Page"
1,Computer,,"<p>computers</p>
",0
2,Mobile,,"<p>Mobiles</p>
",0
5,Tablet,,"<p>parent_category_id</p>
",0
6,Television,,"<p>Television</p>
",0
7,Mens,,"<p>Mens</p>
",0
8,Sandals,,"<p>Sandals</p>
",0
10,test2,Mens,"<p>lorem</p>
",0
11,Camera,,"<p>lorem</p>
",0
12,"Computer Accessories",,"<p>lorem</p>
",0
