S.No,"Category Name",Url,"Store Name",Path,"Count Products"
2,Computer,http://www.flipkart.com/lc/pr/pv1/spotList1/spot1/productList?sid=6bo%2Cb5g&filterNone=true&start=641&ajax=true&_=1460746573007,flipkart,6bo%2Cb5g,200
3,Mobile,http://www.flipkart.com/lc/pr/pv1/spotList1/spot1/productList?sid=tyy%2C4io&filterNone=true&start=1&ajax=true&_=1460746573007,flipkart,tyy%2C4io,200
4,Mobile,http://www.snapdeal.com/acors/json/product/get/search/175/0/0?q=&sort=plrty&brandPageUrl=&keyword=&vc=&webpageName=categoryPage&campaignId=&brandName=&isMC=false&clickSrc=,snapdeal,175,100
5,Mobile,https://catalog.paytm.com/v1//g/electronics/mobile-accessories/mobiles,paytm,electronics/mobile-accessories/mobiles,400
6,Computer,http://www.snapdeal.com/acors/json/product/get/search/57/0/0?q=&sort=plrty&brandPageUrl=&keyword=&vc=&webpageName=categoryPage&campaignId=&brandName=&isMC=false&clickSrc=,snapdeal,57,120
7,Computer,https://catalog.paytm.com/v1//g/electronics/computers-accessories/laptops,paytm,electronics/computers-accessories/laptops,200
8,Mobile,http://www.shopclues.com/apicall.php?object_id=455&pageType=c&page=1,shopclues,,100
9,Mens,http://www.jabong.com/men/accessories/watches/?source=topnav_men&ax=1&page=1&limit=5&sortBy=desc,jabong,men/accessories/watches/?source=topnav_men,100
10,Mobile,http://svcs.ebay.in/services/search/FindingService/v1?OPERATION-NAME=findItemsByCategory&GLOBAL-ID=EBAY-IN&SERVICE-VERSION=1.0.0&SECURITY-APPNAME=vinayver-nayashop-PRD-899e85f71-1c6f9163&RESPONSE-DATA-FORMAT=JSON&categoryId=15032&RESTPAYLOAD&paginationInput.entriesPerPage=100&paginationInput.pageNumber=2&sortOrder=StartTimeNewes,ebay,15032,1000
11,"Computer Accessories",http://www.flipkart.com/lc/pr/pv1/spotList1/spot1/productList?sid=6bo%2Cai3&filterNone=true&start=641&ajax=true&_=1460746573007,flipkart,6bo%2Cai3,596855
